…
#### 練習問題2 `dep_time`、`sched_dep_time`および`dep_delay`を比較しなさい。一貫した変化はあるのか。

一致はしていないが、これは日付がずれることで発生するレコードかもしれません。`make_datetime_100()`関数を使用して日時を作成するときに、これは考慮されていません。

```text
flights_dt %>%
  mutate(dep_time_ = sched_dep_time + dep_delay * 60) %>%
  filter(dep_time_ != dep_time) %>%
  select(dep_time_, dep_time, sched_dep_time, dep_delay)
# A tibble: 1,205 x 4
  dep_time_           dep_time            sched_dep_time      dep_delay
  <dttm>              <dttm>              <dttm>                  <dbl>
1 2013-01-02 08:48:00 2013-01-01 08:48:00 2013-01-01 18:35:00       853
2 2013-01-03 00:42:00 2013-01-02 00:42:00 2013-01-02 23:59:00        43
3 2013-01-03 01:26:00 2013-01-02 01:26:00 2013-01-02 22:50:00       156
4 2013-01-04 00:32:00 2013-01-03 00:32:00 2013-01-03 23:59:00        33
5 2013-01-04 00:50:00 2013-01-03 00:50:00 2013-01-03 21:45:00       185
6 2013-01-04 02:35:00 2013-01-03 02:35:00 2013-01-03 23:59:00       156
# … with 1,199 more rows
```

#### 練習問題3 `air_time`を出発から到着までの時間差を比較しなさい。

一致はしていない。

```text
flights_dt %>%
  select(origin, dest, arr_time, dep_time, air_time) %>% 
  mutate(flight_duration = as.numeric(arr_time - dep_time),
         air_time_mins = air_time,
         diff = flight_duration - air_time_mins) 
# A tibble: 328,063 x 8
   origin dest  arr_time            dep_time            air_time
   <chr>  <chr> <dttm>              <dttm>                 <dbl>
 1 EWR    IAH   2013-01-01 08:30:00 2013-01-01 05:17:00      227
 2 LGA    IAH   2013-01-01 08:50:00 2013-01-01 05:33:00      227
 3 JFK    MIA   2013-01-01 09:23:00 2013-01-01 05:42:00      160
 4 JFK    BQN   2013-01-01 10:04:00 2013-01-01 05:44:00      183
 5 LGA    ATL   2013-01-01 08:12:00 2013-01-01 05:54:00      116
 6 EWR    ORD   2013-01-01 07:40:00 2013-01-01 05:54:00      150
 7 EWR    FLL   2013-01-01 09:13:00 2013-01-01 05:55:00      158
 8 LGA    IAD   2013-01-01 07:09:00 2013-01-01 05:57:00       53
 9 JFK    MCO   2013-01-01 08:38:00 2013-01-01 05:57:00      140
10 LGA    ORD   2013-01-01 07:53:00 2013-01-01 05:58:00      138
# … with 328,053 more rows, and 3 more variables: flight_duration <dbl>,
#   air_time_mins <dbl>, diff <dbl>
```
…
```text
ddays(28:31)
[1] "2419200s (~4 weeks)"    "2505600s (~4.14 weeks)"
[3] "2592000s (~4.29 weeks)" "2678400s (~4.43 weeks)"
```

#### 練習問題2 Rを学び始めたばかりの人に`days(overnight * 1)`を説明しなさい。

このように夜間フライトの場合、dep\_timeよりもarr\_timeのほうが早くなります。夜間飛行の場合、日付のカウントは+1日されていないようです。

```text
flights_dt %>%
  filter(arr_time < dep_time) %>% 
  select(arr_time, dep_time)
# A tibble: 10,633 x 2
   arr_time            dep_time           
   <dttm>              <dttm>             
 1 2013-01-01 00:03:00 2013-01-01 19:29:00
 2 2013-01-01 00:29:00 2013-01-01 19:39:00
 3 2013-01-01 00:08:00 2013-01-01 20:58:00
 4 2013-01-01 01:46:00 2013-01-01 21:02:00
 5 2013-01-01 00:25:00 2013-01-01 21:08:00
 6 2013-01-01 00:16:00 2013-01-01 21:20:00
 7 2013-01-01 00:06:00 2013-01-01 21:21:00
 8 2013-01-01 00:26:00 2013-01-01 21:28:00
 9 2013-01-01 00:20:00 2013-01-01 21:34:00
10 2013-01-01 00:25:00 2013-01-01 21:36:00
# … with 10,623 more rows
```

`overnight`という`TRUE`か`FALSE`をとるフラグを作成し、`TRUE`の場合は+1日することでこの問題を解決します。

```text
flights_dt %>%
  filter(arr_time < dep_time) %>% 
  select(arr_time, dep_time) %>% 
  mutate(overnight = arr_time < dep_time,
         arr_time = arr_time + days(overnight * 1)) 
# A tibble: 10,633 x 3
   arr_time            dep_time            overnight
   <dttm>              <dttm>              <lgl>    
 1 2013-01-02 00:03:00 2013-01-01 19:29:00 TRUE     
 2 2013-01-02 00:29:00 2013-01-01 19:39:00 TRUE     
 3 2013-01-02 00:08:00 2013-01-01 20:58:00 TRUE     
 4 2013-01-02 01:46:00 2013-01-01 21:02:00 TRUE     
 5 2013-01-02 00:25:00 2013-01-01 21:08:00 TRUE     
 6 2013-01-02 00:16:00 2013-01-01 21:20:00 TRUE     
 7 2013-01-02 00:06:00 2013-01-01 21:21:00 TRUE     
 8 2013-01-02 00:26:00 2013-01-01 21:28:00 TRUE     
 9 2013-01-02 00:20:00 2013-01-01 21:34:00 TRUE     
10 2013-01-02 00:25:00 2013-01-01 21:36:00 TRUE     
# … with 10,623 more rows
```
…
