…
{% hint style="info" %}
練習問題はありません
{% endhint %}

### 3.2 `filter()`で行にフィルタをかける

#### 練習問題1.1 : 到着が2時間以上遅れた

`arr_delay`は分単位なので、120分以上をフィルタします。

```text
flights %>% 
  filter(., arr_delay >= 120)

# A tibble: 10,200 x 19
    year month   day dep_time sched_dep_time dep_delay arr_time sched_arr_time arr_delay carrier
   <int> <int> <int>    <int>          <int>     <dbl>    <int>          <int>     <dbl> <chr>  
 1  2013     1     1      811            630       101     1047            830       137 MQ     
 2  2013     1     1      848           1835       853     1001           1950       851 MQ     
 3  2013     1     1      957            733       144     1056            853       123 UA     
 4  2013     1     1     1114            900       134     1447           1222       145 UA     
 5  2013     1     1     1505           1310       115     1638           1431       127 EV     
 6  2013     1     1     1525           1340       105     1831           1626       125 B6     
 7  2013     1     1     1549           1445        64     1912           1656       136 EV     
 8  2013     1     1     1558           1359       119     1718           1515       123 EV     
 9  2013     1     1     1732           1630        62     2028           1825       123 EV     
10  2013     1     1     1803           1620       103     2008           1750       138 MQ     
# … with 10,190 more rows, and 9 more variables: flight <int>, tailnum <chr>, origin <chr>,
#   dest <chr>, air_time <dbl>, distance <dbl>, hour <dbl>, minute <dbl>, time_hour <dttm>
```

#### 練習問題1.2 : ヒューストンへのフライト

or条件で`dest == "IAH" | dest == "HOU"`と指定します。

```text
flights %>% 
  filter(., dest == "IAH" | dest == "HOU")

# A tibble: 9,313 x 19
    year month   day dep_time sched_dep_time dep_delay arr_time sched_arr_time arr_delay carrier
   <int> <int> <int>    <int>          <int>     <dbl>    <int>          <int>     <dbl> <chr>  
 1  2013     1     1      517            515         2      830            819        11 UA     
 2  2013     1     1      533            529         4      850            830        20 UA     
 3  2013     1     1      623            627        -4      933            932         1 UA     
 4  2013     1     1      728            732        -4     1041           1038         3 UA     
 5  2013     1     1      739            739         0     1104           1038        26 UA     
 6  2013     1     1      908            908         0     1228           1219         9 UA     
 7  2013     1     1     1028           1026         2     1350           1339        11 UA     
 8  2013     1     1     1044           1045        -1     1352           1351         1 UA     
 9  2013     1     1     1114            900       134     1447           1222       145 UA     
10  2013     1     1     1205           1200         5     1503           1505        -2 UA     
# … with 9,303 more rows, and 9 more variables: flight <int>, tailnum <chr>, origin <chr>,
#   dest <chr>, air_time <dbl>, distance <dbl>, hour <dbl>, minute <dbl>, time_hour <dttm>
```

この選び方だと条件が多くなると見づらくなるので、`dest %in% c("IAH", "HOU")`で指定します。

```text
flights %>% 
  filter(., dest %in% c("IAH", "HOU"))
  
# A tibble: 9,313 x 19
    year month   day dep_time sched_dep_time dep_delay arr_time sched_arr_time arr_delay carrier
   <int> <int> <int>    <int>          <int>     <dbl>    <int>          <int>     <dbl> <chr>  
 1  2013     1     1      517            515         2      830            819        11 UA     
 2  2013     1     1      533            529         4      850            830        20 UA     
 3  2013     1     1      623            627        -4      933            932         1 UA     
 4  2013     1     1      728            732        -4     1041           1038         3 UA     
 5  2013     1     1      739            739         0     1104           1038        26 UA     
 6  2013     1     1      908            908         0     1228           1219         9 UA     
 7  2013     1     1     1028           1026         2     1350           1339        11 UA     
 8  2013     1     1     1044           1045        -1     1352           1351         1 UA     
 9  2013     1     1     1114            900       134     1447           1222       145 UA     
10  2013     1     1     1205           1200         5     1503           1505        -2 UA     
# … with 9,303 more rows, and 9 more variables: flight <int>, tailnum <chr>, origin <chr>,
#   dest <chr>, air_time <dbl>, distance <dbl>, hour <dbl>, minute <dbl>, time_hour <dttm>
```
…
キャリコードを指定して、フィルタします。

```text
flights %>% 
  filter(., carrier %in% c("AA", "DL", "UA"))

# A tibble: 139,504 x 19
    year month   day dep_time sched_dep_time dep_delay arr_time sched_arr_time arr_delay carrier
   <int> <int> <int>    <int>          <int>     <dbl>    <int>          <int>     <dbl> <chr>  
 1  2013     1     1      517            515         2      830            819        11 UA     
 2  2013     1     1      533            529         4      850            830        20 UA     
 3  2013     1     1      542            540         2      923            850        33 AA     
 4  2013     1     1      554            600        -6      812            837       -25 DL     
 5  2013     1     1      554            558        -4      740            728        12 UA     
 6  2013     1     1      558            600        -2      753            745         8 AA     
 7  2013     1     1      558            600        -2      924            917         7 UA     
 8  2013     1     1      558            600        -2      923            937       -14 UA     
 9  2013     1     1      559            600        -1      941            910        31 AA     
10  2013     1     1      559            600        -1      854            902        -8 UA     
# … with 139,494 more rows, and 9 more variables: flight <int>, tailnum <chr>, origin <chr>,
#   dest <chr>, air_time <dbl>, distance <dbl>, hour <dbl>, minute <dbl>, time_hour <dttm>
```

#### 練習問題1.4 : 夏期\(7~9月\)のフライト

and条件で`month >= 7, month <= 9`と指定します。

```text
flights %>% 
  filter(., month >= 7, month <= 9)

# A tibble: 86,326 x 19
    year month   day dep_time sched_dep_time dep_delay arr_time sched_arr_time arr_delay carrier
   <int> <int> <int>    <int>          <int>     <dbl>    <int>          <int>     <dbl> <chr>  
 1  2013     7     1        1           2029       212      236           2359       157 B6     
 2  2013     7     1        2           2359         3      344            344         0 B6     
 3  2013     7     1       29           2245       104      151              1       110 B6     
 4  2013     7     1       43           2130       193      322             14       188 B6     
 5  2013     7     1       44           2150       174      300            100       120 AA     
 6  2013     7     1       46           2051       235      304           2358       186 B6     
 7  2013     7     1       48           2001       287      308           2305       243 VX     
 8  2013     7     1       58           2155       183      335             43       172 B6     
 9  2013     7     1      100           2146       194      327             30       177 B6     
10  2013     7     1      100           2245       135      337            135       122 B6     
# … with 86,316 more rows, and 9 more variables: flight <int>, tailnum <chr>, origin <chr>,
#   dest <chr>, air_time <dbl>, distance <dbl>, hour <dbl>, minute <dbl>, time_hour <dttm>
```

`month %in% 7:9`と指定しても同じデータをフィルタできます。こうすることで簡潔に記述できます。

```text
flights %>% 
  filter(., month %in% 7:9)

# A tibble: 86,326 x 19
    year month   day dep_time sched_dep_time dep_delay arr_time sched_arr_time arr_delay carrier
   <int> <int> <int>    <int>          <int>     <dbl>    <int>          <int>     <dbl> <chr>  
 1  2013     7     1        1           2029       212      236           2359       157 B6     
 2  2013     7     1        2           2359         3      344            344         0 B6     
 3  2013     7     1       29           2245       104      151              1       110 B6     
 4  2013     7     1       43           2130       193      322             14       188 B6     
 5  2013     7     1       44           2150       174      300            100       120 AA     
 6  2013     7     1       46           2051       235      304           2358       186 B6     
 7  2013     7     1       48           2001       287      308           2305       243 VX     
 8  2013     7     1       58           2155       183      335             43       172 B6     
 9  2013     7     1      100           2146       194      327             30       177 B6     
10  2013     7     1      100           2245       135      337            135       122 B6     
# … with 86,316 more rows, and 9 more variables: flight <int>, tailnum <chr>, origin <chr>,
#   dest <chr>, air_time <dbl>, distance <dbl>, hour <dbl>, minute <dbl>, time_hour <dttm>
```

#### 練習問題1.5 : 到着が2時間遅れたが、出発が遅れなかったフライト

```text
flights %>% 
　filter(., arr_delay > 120, dep_delay <= 0)

# A tibble: 29 x 19
    year month   day dep_time sched_dep_time dep_delay arr_time sched_arr_time arr_delay carrier
   <int> <int> <int>    <int>          <int>     <dbl>    <int>          <int>     <dbl> <chr>  
 1  2013     1    27     1419           1420        -1     1754           1550       124 MQ     
 2  2013    10     7     1350           1350         0     1736           1526       130 EV     
 3  2013    10     7     1357           1359        -2     1858           1654       124 AA     
 4  2013    10    16      657            700        -3     1258           1056       122 B6     
 5  2013    11     1      658            700        -2     1329           1015       194 VX     
 6  2013     3    18     1844           1847        -3       39           2219       140 UA     
 7  2013     4    17     1635           1640        -5     2049           1845       124 MQ     
 8  2013     4    18      558            600        -2     1149            850       179 AA     
 9  2013     4    18      655            700        -5     1213            950       143 AA     
10  2013     5    22     1827           1830        -3     2217           2010       127 MQ     
# … with 19 more rows, and 9 more variables: flight <int>, tailnum <chr>, origin <chr>,
#   dest <chr>, air_time <dbl>, distance <dbl>, hour <dbl>, minute <dbl>, time_hour <dttm>
```

#### 練習問題1.6 : 遅延は少なくとも1時間を超えたが、運行で30分以上取り返したフライト

1時間以上遅延したものは`dep_delay >= 60`でフィルタでき、30分以上取り戻したものは、`dep_delay - arr_delay > 30` となる。`dep_delay - arr_delay == 0`の場合、遅れた分、遅れて到着しているため。

```text
flights %>% 
  filter(., dep_delay >= 60, dep_delay - arr_delay > 30)

# A tibble: 1,844 x 19
    year month   day dep_time sched_dep_time dep_delay arr_time sched_arr_time arr_delay carrier
   <int> <int> <int>    <int>          <int>     <dbl>    <int>          <int>     <dbl> <chr>  
 1  2013     1     1     2205           1720       285       46           2040       246 AA     
 2  2013     1     1     2326           2130       116      131             18        73 B6     
 3  2013     1     3     1503           1221       162     1803           1555       128 UA     
 4  2013     1     3     1839           1700        99     2056           1950        66 AA     
 5  2013     1     3     1850           1745        65     2148           2120        28 AA     
 6  2013     1     3     1941           1759       102     2246           2139        67 UA     
 7  2013     1     3     1950           1845        65     2228           2227         1 B6     
 8  2013     1     3     2015           1915        60     2135           2111        24 9E     
 9  2013     1     3     2257           2000       177       45           2224       141 9E     
10  2013     1     4     1917           1700       137     2135           1950       105 AA     
# … with 1,834 more rows, and 9 more variables: flight <int>, tailnum <chr>, origin <chr>,
#   dest <chr>, air_time <dbl>, distance <dbl>, hour <dbl>, minute <dbl>, time_hour <dttm>
```

#### 練習問題1.7 : 深夜0時〜午前6時までのフライト

深夜0時は、`dep_time == 0000`ではないので、`dep_time == 2400`で指定します。

```text
flights %>% 
  filter(., dep_time <= 600 | dep_time == 2400)

# A tibble: 9,373 x 19
    year month   day dep_time sched_dep_time dep_delay arr_time sched_arr_time arr_delay carrier
   <int> <int> <int>    <int>          <int>     <dbl>    <int>          <int>     <dbl> <chr>  
 1  2013     1     1      517            515         2      830            819        11 UA     
 2  2013     1     1      533            529         4      850            830        20 UA     
 3  2013     1     1      542            540         2      923            850        33 AA     
 4  2013     1     1      544            545        -1     1004           1022       -18 B6     
 5  2013     1     1      554            600        -6      812            837       -25 DL     
 6  2013     1     1      554            558        -4      740            728        12 UA     
 7  2013     1     1      555            600        -5      913            854        19 B6     
 8  2013     1     1      557            600        -3      709            723       -14 EV     
 9  2013     1     1      557            600        -3      838            846        -8 B6     
10  2013     1     1      558            600        -2      753            745         8 AA     
# … with 9,363 more rows, and 9 more variables: flight <int>, tailnum <chr>, origin <chr>,
#   dest <chr>, air_time <dbl>, distance <dbl>, hour <dbl>, minute <dbl>, time_hour <dttm>
```

モジュロ演算を使用すればもう少し簡潔に表現できます。

```text
flights %>% 
  filter(., dep_time %% 2400 <= 600)
  
# A tibble: 9,373 x 19
    year month   day dep_time sched_dep_time dep_delay arr_time sched_arr_time arr_delay carrier
   <int> <int> <int>    <int>          <int>     <dbl>    <int>          <int>     <dbl> <chr>  
 1  2013     1     1      517            515         2      830            819        11 UA     
 2  2013     1     1      533            529         4      850            830        20 UA     
 3  2013     1     1      542            540         2      923            850        33 AA     
 4  2013     1     1      544            545        -1     1004           1022       -18 B6     
 5  2013     1     1      554            600        -6      812            837       -25 DL     
 6  2013     1     1      554            558        -4      740            728        12 UA     
 7  2013     1     1      555            600        -5      913            854        19 B6     
 8  2013     1     1      557            600        -3      709            723       -14 EV     
 9  2013     1     1      557            600        -3      838            846        -8 B6     
10  2013     1     1      558            600        -2      753            745         8 AA     
# … with 9,363 more rows, and 9 more variables: flight <int>, tailnum <chr>, origin <chr>,
#   dest <chr>, air_time <dbl>, distance <dbl>, hour <dbl>, minute <dbl>, time_hour <dttm>
```

#### 練習問題2 : `between()`を使って、先程の問題を簡略化しなさい。

```text
flights %>% 
  filter(., between(month, 7, 9))

# A tibble: 86,326 x 19
    year month   day dep_time sched_dep_time dep_delay arr_time sched_arr_time arr_delay carrier
   <int> <int> <int>    <int>          <int>     <dbl>    <int>          <int>     <dbl> <chr>  
 1  2013     7     1        1           2029       212      236           2359       157 B6     
 2  2013     7     1        2           2359         3      344            344         0 B6     
 3  2013     7     1       29           2245       104      151              1       110 B6     
 4  2013     7     1       43           2130       193      322             14       188 B6     
 5  2013     7     1       44           2150       174      300            100       120 AA     
 6  2013     7     1       46           2051       235      304           2358       186 B6     
 7  2013     7     1       48           2001       287      308           2305       243 VX     
 8  2013     7     1       58           2155       183      335             43       172 B6     
 9  2013     7     1      100           2146       194      327             30       177 B6     
10  2013     7     1      100           2245       135      337            135       122 B6     
# … with 86,316 more rows, and 9 more variables: flight <int>, tailnum <chr>, origin <chr>,
#   dest <chr>, air_time <dbl>, distance <dbl>, hour <dbl>, minute <dbl>, time_hour <dttm>
> 
```

#### 練習問題3 : `dep_time`が欠損値のフライトはいくつあるか。

`is.na(dep_time)`で`TRUE`かどうかを判定し、`TRUE`をフィルタします。

```text
flights %>% 
  filter(., is.na(dep_time))

# A tibble: 8,255 x 19
    year month   day dep_time sched_dep_time dep_delay arr_time sched_arr_time arr_delay carrier
   <int> <int> <int>    <int>          <int>     <dbl>    <int>          <int>     <dbl> <chr>  
 1  2013     1     1       NA           1630        NA       NA           1815        NA EV     
 2  2013     1     1       NA           1935        NA       NA           2240        NA AA     
 3  2013     1     1       NA           1500        NA       NA           1825        NA AA     
 4  2013     1     1       NA            600        NA       NA            901        NA B6     
 5  2013     1     2       NA           1540        NA       NA           1747        NA EV     
 6  2013     1     2       NA           1620        NA       NA           1746        NA EV     
 7  2013     1     2       NA           1355        NA       NA           1459        NA EV     
 8  2013     1     2       NA           1420        NA       NA           1644        NA EV     
 9  2013     1     2       NA           1321        NA       NA           1536        NA EV     
10  2013     1     2       NA           1545        NA       NA           1910        NA AA     
# … with 8,245 more rows, and 9 more variables: flight <int>, tailnum <chr>, origin <chr>,
#   dest <chr>, air_time <dbl>, distance <dbl>, hour <dbl>, minute <dbl>, time_hour <dttm>
```
…
`desc(dep_time)`では、`NA`から並べることはできません。

```text
flights %>% 
  arrange(desc(dep_time))

# A tibble: 336,776 x 19
    year month   day dep_time sched_dep_time dep_delay arr_time sched_arr_time arr_delay carrier flight tailnum origin dest  air_time
   <int> <int> <int>    <int>          <int>     <dbl>    <int>          <int>     <dbl> <chr>    <int> <chr>   <chr>  <chr>    <dbl>
 1  2013    10    30     2400           2359         1      327            337       -10 B6         839 N661JB  JFK    BQN        182
 2  2013    11    27     2400           2359         1      515            445        30 B6         745 N629JB  JFK    PSE        230
 3  2013    12     5     2400           2359         1      427            440       -13 B6        1503 N587JB  JFK    SJU        182
 4  2013    12     9     2400           2359         1      432            440        -8 B6        1503 N705JB  JFK    SJU        195
 5  2013    12     9     2400           2250        70       59           2356        63 B6        1816 N187JB  JFK    SYR         41
 6  2013    12    13     2400           2359         1      432            440        -8 B6        1503 N587JB  JFK    SJU        192
 7  2013    12    19     2400           2359         1      434            440        -6 B6        1503 N561JB  JFK    SJU        193
 8  2013    12    29     2400           1700       420      302           2025       397 AA        2379 N3GMAA  LGA    MIA        161
 9  2013     2     7     2400           2359         1      432            436        -4 B6         727 N559JB  JFK    BQN        186
10  2013     2     7     2400           2359         1      443            444        -1 B6         739 N766JB  JFK    PSE        194
# ... with 336,766 more rows, and 4 more variables: distance <dbl>, hour <dbl>, minute <dbl>, time_hour <dttm>
```
…
