…
### 7.3 `tibble`と`data.frame`

{% hint style="info" %}
練習問題はありません
{% endhint %}

### 7.4 古いコードとの関わり

#### 練習問題1 : オブジェクトが`tibble`かどうか、どうやって判断しますか。

表示させれば、tibbleかどうか判別できます。または`class()`や`is_tibble()`でも判別可能です

```text
diamonds
# A tibble: 53,940 x 10
   carat cut       color clarity depth table price     x     y     z
   <dbl> <ord>     <ord> <ord>   <dbl> <dbl> <int> <dbl> <dbl> <dbl>
 1 0.23  Ideal     E     SI2      61.5    55   326  3.95  3.98  2.43
 2 0.21  Premium   E     SI1      59.8    61   326  3.89  3.84  2.31
 3 0.23  Good      E     VS1      56.9    65   327  4.05  4.07  2.31
 4 0.290 Premium   I     VS2      62.4    58   334  4.2   4.23  2.63
 5 0.31  Good      J     SI2      63.3    58   335  4.34  4.35  2.75
 6 0.24  Very Good J     VVS2     62.8    57   336  3.94  3.96  2.48
 7 0.24  Very Good I     VVS1     62.3    57   336  3.95  3.98  2.47
 8 0.26  Very Good H     SI1      61.9    55   337  4.07  4.11  2.53
 9 0.22  Fair      E     VS2      65.1    61   337  3.87  3.78  2.49
10 0.23  Very Good H     VS1      59.4    61   338  4     4.05  2.39
# … with 53,930 more rows
…
mt_tbl[[var]]
 [1] 21.0 21.0 22.8 21.4 18.7 18.1 14.3 24.4 22.8 19.2 17.8 16.4 17.3 15.2 10.4
[16] 10.4 14.7 32.4 30.4 33.9 21.5 15.5 15.2 13.3 19.2 27.3 26.0 30.4 15.8 19.7
[31] 15.0 21.4
#----------------------------------------
mtcars[, var]
 [1] 21.0 21.0 22.8 21.4 18.7 18.1 14.3 24.4 22.8 19.2 17.8 16.4 17.3 15.2 10.4
[16] 10.4 14.7 32.4 30.4 33.9 21.5 15.5 15.2 13.3 19.2 27.3 26.0 30.4 15.8 19.7
[31] 15.0 21.4

mt_tbl[, var]
# A tibble: 32 x 1
     mpg
   <dbl>
 1  21  
 2  21  
 3  22.8
 4  21.4
 5  18.7
 6  18.1
 7  14.3
 8  24.4
 9  22.8
10  19.2
# … with 22 more rows
…
# A tibble: 3 x 2
  name  value
  <chr> <dbl>
1 x1        1
2 x2        2
3 x3        3
```

#### 練習問題6 :`tibble`のフッターに追加の列名を追加するオプションは何ですか。

consoleに`tibble`の変数名が収まりきらない場合、残っている変数名がフッターに表示される仕様になっています。この`tibble`の変数名の数をコントロールするのが`n_extra`です。

```text
print(nycflights13::flights)
# A tibble: 336,776 x 19
    year month   day dep_time sched_dep_time
   <int> <int> <int>    <int>          <int>
 1  2013     1     1      517            515
 2  2013     1     1      533            529
 3  2013     1     1      542            540
 4  2013     1     1      544            545
 5  2013     1     1      554            600
 6  2013     1     1      554            558
 7  2013     1     1      555            600
 8  2013     1     1      557            600
 9  2013     1     1      557            600
10  2013     1     1      558            600
# … with 336,766 more rows, and 14 more
#   variables: dep_delay <dbl>,
#   arr_time <int>, sched_arr_time <int>,
#   arr_delay <dbl>, carrier <chr>,
#   flight <int>, tailnum <chr>,
#   origin <chr>, dest <chr>, air_time <dbl>,
#   distance <dbl>, hour <dbl>, minute <dbl>,
#   time_hour <dttm>

print(nycflights13::flights, n_extra = 5)
# A tibble: 336,776 x 19
    year month   day dep_time sched_dep_time
   <int> <int> <int>    <int>          <int>
 1  2013     1     1      517            515
 2  2013     1     1      533            529
 3  2013     1     1      542            540
 4  2013     1     1      544            545
 5  2013     1     1      554            600
 6  2013     1     1      554            558
 7  2013     1     1      555            600
 8  2013     1     1      557            600
 9  2013     1     1      557            600
10  2013     1     1      558            600
# … with 336,766 more rows, and 14 more
#   variables: dep_delay <dbl>,
#   arr_time <int>, sched_arr_time <int>,
#   arr_delay <dbl>, carrier <chr>, …

print(nycflights13::flights, n_extra = 0)
# A tibble: 336,776 x 19
    year month   day dep_time sched_dep_time
   <int> <int> <int>    <int>          <int>
 1  2013     1     1      517            515
 2  2013     1     1      533            529
 3  2013     1     1      542            540
 4  2013     1     1      544            545
 5  2013     1     1      554            600
 6  2013     1     1      554            558
 7  2013     1     1      555            600
 8  2013     1     1      557            600
 9  2013     1     1      557            600
10  2013     1     1      558            600
# … with 336,766 more rows, and 14 more
```
