…
似たような加工を先程もしたような気がしますが、それはさておき、ここでは愚直に結合して、`suffix`という引数でカラムの衝突を防ぎます。`**_join`は、名前が衝突していると先に結合したものを`.x`、次に結合したものを`.y`としてカラム名に付与します。

```text
flights %>%
  select(origin, dest) %>%
  left_join(airports %>%
              select(faa, lat, lon),
    by = c("origin" = "faa")
  ) %>%
  left_join(airports %>%
                select(faa, lat, lon),
              by = c("dest" = "faa"))
              
# A tibble: 336,776 x 6
   origin dest  lat.x lon.x lat.y lon.y
   <chr>  <chr> <dbl> <dbl> <dbl> <dbl>
 1 EWR    IAH    40.7 -74.2  30.0 -95.3
 2 LGA    IAH    40.8 -73.9  30.0 -95.3
 3 JFK    MIA    40.6 -73.8  25.8 -80.3
 4 JFK    BQN    40.6 -73.8  NA    NA  
 5 LGA    ATL    40.8 -73.9  33.6 -84.4
 6 EWR    ORD    40.7 -74.2  42.0 -87.9
 7 EWR    FLL    40.7 -74.2  26.1 -80.2
 8 LGA    IAD    40.8 -73.9  38.9 -77.5
 9 JFK    MCO    40.6 -73.8  28.4 -81.3
10 LGA    ORD    40.8 -73.9  42.0 -87.9
# … with 336,766 more rows

flights %>%
  select(origin, dest) %>%
  left_join(airports %>%
              select(faa, lat, lon),
    by = c("origin" = "faa")
  ) %>%
  left_join(airports %>%
                select(faa, lat, lon),
              by = c("dest" = "faa"),
    suffix = c("_origin", "_dest"))

# A tibble: 336,776 x 6
   origin dest  lat_origin lon_origin lat_dest lon_dest
   <chr>  <chr>      <dbl>      <dbl>    <dbl>    <dbl>
 1 EWR    IAH         40.7      -74.2     30.0    -95.3
 2 LGA    IAH         40.8      -73.9     30.0    -95.3
 3 JFK    MIA         40.6      -73.8     25.8    -80.3
 4 JFK    BQN         40.6      -73.8     NA       NA  
 5 LGA    ATL         40.8      -73.9     33.6    -84.4
 6 EWR    ORD         40.7      -74.2     42.0    -87.9
 7 EWR    FLL         40.7      -74.2     26.1    -80.2
 8 LGA    IAD         40.8      -73.9     38.9    -77.5
 9 JFK    MCO         40.6      -73.8     28.4    -81.3
10 LGA    ORD         40.8      -73.9     42.0    -87.9
# … with 336,766 more rows
```
…
### 10.5 フィルタジョイン

#### 練習問題1 `tailnum`が欠損しているフライトの意味は何ですか？`planes`に一致するレコードを持たない機体に共通しているのは何か。

アメリカン航空（AA）およびエンボイ航空（MQ）は`tailnum`がないようです。

```text
flights %>%
  anti_join(planes, by = "tailnum") %>%
  count(carrier, sort = TRUE)
  
# A tibble: 10 x 2
  carrier     n
  <chr>   <int>
1 MQ      25397
2 AA      22558
3 UA       1693
4 9E       1044
5 B6        830
6 US        699
# … with 4 more rows
```
…
