…
各行は\(国、年、タイプ\)の組み合わせを表します。`count`には、各`type`の値を含みます。

```text
table2
# A tibble: 12 x 4
  country      year type           count
  <chr>       <int> <chr>          <int>
1 Afghanistan  1999 cases            745
2 Afghanistan  1999 population  19987071
3 Afghanistan  2000 cases           2666
4 Afghanistan  2000 population  20595360
5 Brazil       1999 cases          37737
6 Brazil       1999 population 172006362
# … with 6 more rows
```
…
#### 練習問題2 `mutate(key = str_replace(key, "newrel", "new_rel")`を無視するとどうなるのか。

`separate()`は、分割後の要素が少ないというエラーが発生します。

```text
who1 %>%
  select(key) %>% 
  separate(key, c("new", "type", "sexage"), sep = "_") %>% 
  filter(is.na(sexage))
  
# A tibble: 2,580 x 3
   new    type  sexage
   <chr>  <chr> <chr> 
 1 newrel m014  NA    
 2 newrel m014  NA    
 3 newrel m014  NA    
 4 newrel m014  NA    
 5 newrel m014  NA    
 6 newrel m014  NA    
 7 newrel m014  NA    
 8 newrel m014  NA    
 9 newrel m014  NA    
10 newrel m014  NA    
# … with 2,570 more rows
…
