…
### 18.2 シンプルなモデル

#### 練習問題1 線形モデルの1つの欠点は、計算過程に平方項があるので、異常値に敏感なこと。以下のシミュレーションデータに線形モデルを当てはめて、結果を視覚化しなさい。

```text
sim1a <- tibble(
  x = rep(1:10, each = 3),
  y = x * 1.5 + 6 + rt(length(x), df = 2)
)

sim1a
# A tibble: 30 x 2
       x     y
   <int> <dbl>
 1     1 10.8 
 2     1  8.13
 3     1  9.07
 4     2  8.41
 5     2  8.79
 6     2  6.35
 7     3 11.0 
 8     3 10.9 
 9     3  9.66
10     4 16.1 
# … with 20 more rows
```
…
通常の線形回帰分析では正規分布を仮定していますが、それの代わりに裾が重いt分布を使うことでロバストな回帰分析が実行できます。

#### 練習問題2 線形モデルをよりロバストにする1つの方法は、mean-absolute distanceを使用できます。

```text
sim1a <- tibble(
  x = rep(1:10, each = 3),
  y = x * 1.5 + 6 + rcauchy(length(x))
)

sim1a
# A tibble: 30 x 2
       x     y
   <int> <dbl>
 1     1  8.11
 2     1 11.9 
 3     1  7.50
 4     2  9.63
 5     2  7.84
 6     2  8.24
 7     3 91.6 
 8     3  9.89
 9     3 20.5 
10     4 11.8 
# … with 20 more rows
```
…
#### 練習問題2 フィットするモデルに対して生成された方程式を探索するために`model_matrix()`を使用する。交互作用を表す表現式は何か。

`sim3`はそもそもこのようなデータです。`x1`は連続変数、`x2`はカテゴリ変数です。このとき、交互作用は`x1`と`x2`を掛け合わせることで生成が可能であり、`model_matrix()`を使えば、簡単に生成することができます。交互作用はモデルの表現式において、`*`で変数を掛け合わせることで生成可能です。

```text
sim3
# A tibble: 120 x 5
      x1 x2      rep      y    sd
   <int> <fct> <int>  <dbl> <dbl>
 1     1 a         1 -0.571     2
 2     1 a         2  1.18      2
 3     1 a         3  2.24      2
 4     1 b         1  7.44      2
 5     1 b         2  8.52      2
 6     1 b         3  7.72      2
 7     1 c         1  6.51      2
 8     1 c         2  5.79      2
 9     1 c         3  6.07      2
10     1 d         1  2.11      2
# … with 110 more rows
```

一般に、解釈を必要とするモデルの場合、カーディナリティが多いカテゴリ変数の交互作用は、解釈が困難になる経験上、あまり個人的にはおすすめできません。連続変数×カテゴリ変数\(0 or 1\)の交互作用は解釈もしやすくおすすめです。

```text
model_matrix(y ~ x1 * x2, data = sim3)
# A tibble: 120 x 8
   `(Intercept)`    x1   x2b   x2c   x2d `x1:x2b` `x1:x2c` `x1:x2d`
           <dbl> <dbl> <dbl> <dbl> <dbl>    <dbl>    <dbl>    <dbl>
 1             1     1     0     0     0        0        0        0
 2             1     1     0     0     0        0        0        0
 3             1     1     0     0     0        0        0        0
 4             1     1     1     0     0        1        0        0
 5             1     1     1     0     0        1        0        0
 6             1     1     1     0     0        1        0        0
 7             1     1     0     1     0        0        1        0
 8             1     1     0     1     0        0        1        0
 9             1     1     0     1     0        0        1        0
10             1     1     0     0     1        0        0        1
# … with 110 more rows
```
…
  for (i in x_levels) {
    var_name <- paste0("x2", i)
    df[[var_name]] <- as.numeric(df$x2 == i)
  }
  x2_variables <- paste0("x2", x_levels)
  df[["(Inter)"]] <- 1
  res <- df %>% select(., `(Inter)`, x1, one_of(x2_variables))
  res
}

# A tibble: 120 x 5
   `(Inter)`    x1   x2b   x2c   x2d
       <dbl> <int> <dbl> <dbl> <dbl>
 1         1     1     0     0     0
 2         1     1     0     0     0
 3         1     1     0     0     0
 4         1     1     1     0     0
 5         1     1     1     0     0
 6         1     1     1     0     0
 7         1     1     0     1     0
 8         1     1     0     1     0
 9         1     1     0     1     0
10         1     1     0     0     1
# … with 110 more rows
```
次に、`mod2`のもととなるデータフレームを生成する関数を作成します。

```text
model_mat2 <- function(df) {
  out <- model_mat1(df)
  x2cols <- str_subset(colnames(out), "x2")
  for (var_name in x2cols) {
    inter_val <- paste0("x1:", var_name)
    out[[inter_val]] <- out$x1 * out[[var_name]]
  }
  out
}

model_mat2(sim3)
# A tibble: 120 x 8
   `(Inter)`    x1   x2b   x2c   x2d `x1:x2b` `x1:x2c` `x1:x2d`
       <dbl> <int> <dbl> <dbl> <dbl>    <dbl>    <dbl>    <dbl>
 1         1     1     0     0     0        0        0        0
 2         1     1     0     0     0        0        0        0
 3         1     1     0     0     0        0        0        0
 4         1     1     1     0     0        1        0        0
 5         1     1     1     0     0        1        0        0
 6         1     1     1     0     0        1        0        0
 7         1     1     0     1     0        0        1        0
 8         1     1     0     1     0        0        1        0
 9         1     1     0     1     0        0        1        0
10         1     1     0     0     1        0        0        1
# … with 110 more rows
```
…
